<?xml version="1.0" standalone="no"?>
<!DOCTYPE svg PUBLIC "-//W3C//DTD SVG 1.1//EN" "http://www.w3.org/Graphics/SVG/1.1/DTD/svg11.dtd" >
<svg xmlns="http://www.w3.org/2000/svg">
<metadata>Generated by IcoMoon</metadata>
<defs>
<font id="icomoon" horiz-adv-x="1024">
<font-face units-per-em="1024" ascent="960" descent="-64" />
<missing-glyph horiz-adv-x="1024" />
<glyph unicode="&#x20;" horiz-adv-x="512" d="" />
<glyph unicode="&#xe900;" glyph-name="align-right" d="M896 554.667h-597.333c-23.552 0-42.667-19.115-42.667-42.667s19.115-42.667 42.667-42.667h597.333c23.552 0 42.667 19.115 42.667 42.667s-19.115 42.667-42.667 42.667zM896 725.334h-768c-23.552 0-42.667-19.115-42.667-42.667s19.115-42.667 42.667-42.667h768c23.552 0 42.667 19.115 42.667 42.667s-19.115 42.667-42.667 42.667zM896 384h-768c-23.552 0-42.667-19.115-42.667-42.667s19.115-42.667 42.667-42.667h768c23.552 0 42.667 19.115 42.667 42.667s-19.115 42.667-42.667 42.667zM896 213.334h-597.333c-23.552 0-42.667-19.115-42.667-42.667s19.115-42.667 42.667-42.667h597.333c23.552 0 42.667 19.115 42.667 42.667s-19.115 42.667-42.667 42.667z" />
<glyph unicode="&#xe901;" glyph-name="arrow-down" d="M780.501 456.832l-225.835-225.835v494.336c0 23.552-19.115 42.667-42.667 42.667s-42.667-19.115-42.667-42.667v-494.336l-225.835 225.835c-16.683 16.683-43.691 16.683-60.331 0s-16.683-43.691 0-60.331l298.667-298.667c3.925-3.925 8.619-7.083 13.824-9.259 10.453-4.309 22.229-4.309 32.683 0 5.035 2.091 9.728 5.163 13.824 9.259l298.667 298.667c16.683 16.683 16.683 43.691 0 60.331s-43.691 16.683-60.331 0z" />
<glyph unicode="&#xe902;" glyph-name="arrow-down-circle" d="M981.333 426.667c0 129.579-52.565 246.997-137.472 331.861s-202.283 137.472-331.861 137.472-246.997-52.565-331.861-137.472-137.472-202.283-137.472-331.861 52.565-246.997 137.472-331.861 202.283-137.472 331.861-137.472 246.997 52.565 331.861 137.472 137.472 202.283 137.472 331.861zM896 426.667c0-106.069-42.923-201.984-112.469-271.531s-165.461-112.469-271.531-112.469-201.984 42.923-271.531 112.469-112.469 165.461-112.469 271.531 42.923 201.984 112.469 271.531 165.461 112.469 271.531 112.469 201.984-42.923 271.531-112.469 112.469-165.461 112.469-271.531zM469.333 597.334v-238.336l-97.835 97.835c-16.683 16.683-43.691 16.683-60.331 0s-16.683-43.691 0-60.331l170.667-170.667c3.925-3.925 8.619-7.083 13.824-9.259 10.453-4.309 22.229-4.309 32.683 0 5.035 2.091 9.728 5.163 13.824 9.259l170.667 170.667c16.683 16.683 16.683 43.691 0 60.331s-43.691 16.683-60.331 0l-97.835-97.835v238.336c0 23.552-19.115 42.667-42.667 42.667s-42.667-19.115-42.667-42.667z" />
<glyph unicode="&#xe903;" glyph-name="at-sign" d="M640 426.667c0-35.371-14.293-67.285-37.504-90.496s-55.125-37.504-90.496-37.504-67.285 14.293-90.496 37.504-37.504 55.125-37.504 90.496 14.293 67.285 37.504 90.496 55.125 37.504 90.496 37.504 67.285-14.293 90.496-37.504 37.504-55.125 37.504-90.496zM671.573 285.099c5.547-7.765 11.691-15.061 18.389-21.76 30.848-30.848 73.6-50.005 120.704-50.005s89.856 19.157 120.661 50.005 50.005 73.557 50.005 120.661v42.667c0 129.579-52.608 246.997-137.472 331.861s-202.283 137.472-331.904 137.429-246.955-52.565-331.861-137.472-137.429-202.283-137.429-331.861 52.608-246.997 137.472-331.861 202.283-137.472 331.861-137.429c107.733 0 207.147 36.352 285.44 96.811 18.645 14.379 22.101 41.173 7.68 59.861s-41.173 22.101-59.861 7.68c-63.445-48.981-144.085-78.677-231.893-79.019-108.373 0.384-203.776 43.264-272.981 112.469-69.419 69.504-112.384 165.419-112.384 271.488s42.923 201.984 112.469 271.531 165.461 112.469 271.531 112.469 201.984-42.923 271.531-112.469 112.469-165.461 112.469-271.488v-42.667c0-23.595-9.515-44.843-25.003-60.331s-36.736-25.003-60.331-25.003-44.843 9.515-60.331 25.003-25.003 36.736-25.003 60.331v213.333c0 23.552-19.115 42.667-42.667 42.667s-42.667-19.115-42.667-42.667c-35.627 26.752-80 42.667-128 42.667-58.88 0-112.299-23.936-150.869-62.464s-62.464-91.989-62.464-150.869 23.936-112.299 62.464-150.869 91.989-62.464 150.869-62.464 112.299 23.936 150.869 62.464c2.987 2.987 5.931 6.101 8.747 9.259z" />
<glyph unicode="&#xe904;" glyph-name="book" d="M277.333 896c-41.216 0-78.635-16.768-105.6-43.733s-43.733-64.384-43.733-105.6v-640c0-41.216 16.768-78.635 43.733-105.6s64.384-43.733 105.6-43.733h576c23.552 0 42.667 19.115 42.667 42.667v853.333c0 23.552-19.115 42.667-42.667 42.667zM810.667 170.667v-128h-533.333c-17.664 0-33.621 7.125-45.269 18.731s-18.731 27.605-18.731 45.269 7.125 33.621 18.731 45.269 27.605 18.731 45.269 18.731zM277.333 810.667h533.333v-554.667h-533.333c-22.912 0-44.587-5.163-64-14.379v505.045c0 17.664 7.125 33.621 18.731 45.269s27.605 18.731 45.269 18.731z" />
<glyph unicode="&#xe905;" glyph-name="bookmark" d="M785.877 7.936c6.869-4.949 15.488-7.936 24.789-7.936 23.552 0 42.667 19.115 42.667 42.667v682.667c0 35.328-14.379 67.413-37.504 90.496s-55.168 37.504-90.496 37.504h-426.667c-35.328 0-67.413-14.379-90.496-37.504s-37.504-55.168-37.504-90.496v-682.667c-0.043-8.491 2.56-17.237 7.936-24.789 13.696-19.157 40.363-23.637 59.52-9.899l273.877 195.584zM768 125.568l-231.211 165.163c-15.147 10.837-34.944 10.325-49.579 0l-231.211-165.163v599.765c0 11.776 4.736 22.4 12.501 30.165s18.389 12.501 30.165 12.501h426.667c11.776 0 22.4-4.736 30.165-12.501s12.501-18.389 12.501-30.165z" />
<glyph unicode="&#xe906;" glyph-name="camera" d="M1024 128v469.333c0 35.328-14.379 67.413-37.504 90.496s-55.168 37.504-90.496 37.504h-147.84l-72.661 109.013c-7.765 11.52-20.736 18.987-35.499 18.987h-256c-13.909-0.085-27.307-6.741-35.499-18.987l-72.661-109.013h-147.84c-35.328 0-67.413-14.379-90.496-37.504s-37.504-55.168-37.504-90.496v-469.333c0-35.328 14.379-67.413 37.504-90.496s55.168-37.504 90.496-37.504h768c35.328 0 67.413 14.379 90.496 37.504s37.504 55.168 37.504 90.496zM938.667 128c0-11.776-4.736-22.4-12.501-30.165s-18.389-12.501-30.165-12.501h-768c-11.776 0-22.4 4.736-30.165 12.501s-12.501 18.389-12.501 30.165v469.333c0 11.776 4.736 22.4 12.501 30.165s18.389 12.501 30.165 12.501h170.667c14.763 0 27.733 7.467 35.499 18.987l72.661 109.013h210.347l72.661-109.013c8.192-12.245 21.589-18.901 35.499-18.987h170.667c11.776 0 22.4-4.736 30.165-12.501s12.501-18.389 12.501-30.165zM725.333 384c0 58.88-23.936 112.299-62.464 150.869s-91.989 62.464-150.869 62.464-112.299-23.936-150.869-62.464-62.464-91.989-62.464-150.869 23.936-112.299 62.464-150.869 91.989-62.464 150.869-62.464 112.299 23.936 150.869 62.464 62.464 91.989 62.464 150.869zM640 384c0-35.371-14.293-67.285-37.504-90.496s-55.125-37.504-90.496-37.504-67.285 14.293-90.496 37.504-37.504 55.125-37.504 90.496 14.293 67.285 37.504 90.496 55.125 37.504 90.496 37.504 67.285-14.293 90.496-37.504 37.504-55.125 37.504-90.496z" />
<glyph unicode="&#xe907;" glyph-name="code" d="M712.832 140.502l256 256c16.683 16.683 16.683 43.691 0 60.331l-256 256c-16.683 16.683-43.691 16.683-60.331 0s-16.683-43.691 0-60.331l225.835-225.835-225.835-225.835c-16.683-16.683-16.683-43.691 0-60.331s43.691-16.683 60.331 0zM311.168 712.832l-256-256c-16.683-16.683-16.683-43.691 0-60.331l256-256c16.683-16.683 43.691-16.683 60.331 0s16.683 43.691 0 60.331l-225.835 225.835 225.835 225.835c16.683 16.683 16.683 43.691 0 60.331s-43.691 16.683-60.331 0z" />
<glyph unicode="&#xe908;" glyph-name="copy" d="M469.333 597.334c-35.328 0-67.413-14.379-90.496-37.504s-37.504-55.168-37.504-90.496v-384c0-35.328 14.379-67.413 37.504-90.496s55.168-37.504 90.496-37.504h384c35.328 0 67.413 14.379 90.496 37.504s37.504 55.168 37.504 90.496v384c0 35.328-14.379 67.413-37.504 90.496s-55.168 37.504-90.496 37.504zM469.333 512h384c11.776 0 22.4-4.736 30.165-12.501s12.501-18.389 12.501-30.165v-384c0-11.776-4.736-22.4-12.501-30.165s-18.389-12.501-30.165-12.501h-384c-11.776 0-22.4 4.736-30.165 12.501s-12.501 18.389-12.501 30.165v384c0 11.776 4.736 22.4 12.501 30.165s18.389 12.501 30.165 12.501zM213.333 341.334h-42.667c-11.776 0-22.4 4.736-30.165 12.501s-12.501 18.389-12.501 30.165v384c0 11.776 4.736 22.4 12.501 30.165s18.389 12.501 30.165 12.501h384c11.776 0 22.4-4.736 30.165-12.501s12.501-18.389 12.501-30.165v-42.667c0-23.552 19.115-42.667 42.667-42.667s42.667 19.115 42.667 42.667v42.667c0 35.328-14.379 67.413-37.504 90.496s-55.168 37.504-90.496 37.504h-384c-35.328 0-67.413-14.379-90.496-37.504s-37.504-55.168-37.504-90.496v-384c0-35.328 14.379-67.413 37.504-90.496s55.168-37.504 90.496-37.504h42.667c23.552 0 42.667 19.115 42.667 42.667s-19.115 42.667-42.667 42.667z" />
<glyph unicode="&#xe909;" glyph-name="edit-3" d="M512 42.667h384c23.552 0 42.667 19.115 42.667 42.667s-19.115 42.667-42.667 42.667h-384c-23.552 0-42.667-19.115-42.667-42.667s19.115-42.667 42.667-42.667zM673.835 819.499l-533.333-533.333c-5.205-5.163-9.259-11.947-11.221-19.84l-42.667-170.667c-1.664-6.4-1.792-13.568 0-20.693 5.717-22.869 28.885-36.779 51.755-31.061l170.667 42.667c7.125 1.749 14.080 5.504 19.84 11.221l533.333 533.333c25.984 25.984 38.997 60.16 38.997 94.165s-13.013 68.181-38.997 94.165-60.203 39.040-94.208 39.040-68.181-13.013-94.165-38.997zM734.165 759.168c9.344 9.344 21.504 13.995 33.835 13.995s24.491-4.651 33.835-13.995 13.995-21.504 13.995-33.835-4.651-24.491-13.995-33.835l-524.971-524.971-90.24-22.571 22.571 90.24z" />
<glyph unicode="&#xe90a;" glyph-name="external-link" d="M725.333 384v-256c0-11.776-4.736-22.4-12.501-30.165s-18.389-12.501-30.165-12.501h-469.333c-11.776 0-22.4 4.736-30.165 12.501s-12.501 18.389-12.501 30.165v469.333c0 11.776 4.736 22.4 12.501 30.165s18.389 12.501 30.165 12.501h256c23.552 0 42.667 19.115 42.667 42.667s-19.115 42.667-42.667 42.667h-256c-35.328 0-67.413-14.379-90.496-37.504s-37.504-55.168-37.504-90.496v-469.333c0-35.328 14.379-67.413 37.504-90.496s55.168-37.504 90.496-37.504h469.333c35.328 0 67.413 14.379 90.496 37.504s37.504 55.168 37.504 90.496v256c0 23.552-19.115 42.667-42.667 42.667s-42.667-19.115-42.667-42.667zM456.832 311.168l396.501 396.501v-153.003c0-23.552 19.115-42.667 42.667-42.667s42.667 19.115 42.667 42.667v256c0 5.803-1.152 11.307-3.243 16.341s-5.163 9.728-9.216 13.781c-0.043 0.043-0.043 0.043-0.085 0.085-3.925 3.925-8.619 7.083-13.781 9.216-5.035 2.091-10.539 3.243-16.341 3.243h-256c-23.552 0-42.667-19.115-42.667-42.667s19.115-42.667 42.667-42.667h153.003l-396.501-396.501c-16.683-16.683-16.683-43.691 0-60.331s43.691-16.683 60.331 0z" />
<glyph unicode="&#xe90b;" glyph-name="eye" d="M4.523 445.739c-5.803-11.691-6.229-25.728 0-38.144 0 0 16.896-33.664 47.787-78.635 19.243-27.989 44.288-61.099 74.965-94.635 38.144-41.771 85.504-84.779 141.611-119.467 68.053-42.069 149.589-72.192 243.115-72.192s175.061 30.123 243.115 72.192c56.107 34.688 103.467 77.696 141.611 119.467 30.635 33.536 55.723 66.645 74.965 94.635 30.891 44.971 47.787 78.635 47.787 78.635 5.803 11.691 6.229 25.728 0 38.144 0 0-16.896 33.664-47.787 78.635-19.243 27.989-44.288 61.099-74.965 94.635-38.144 41.771-85.504 84.779-141.611 119.467-68.053 42.069-149.589 72.192-243.115 72.192s-175.061-30.123-243.115-72.192c-56.107-34.688-103.467-77.696-141.611-119.467-30.677-33.536-55.723-66.603-74.965-94.635-30.891-44.971-47.787-78.635-47.787-78.635zM91.307 426.667c6.955 11.989 17.365 29.056 31.317 49.408 17.493 25.429 40.107 55.296 67.627 85.376 34.347 37.589 75.733 74.923 123.477 104.448 57.6 35.584 123.776 59.435 198.272 59.435s140.672-23.851 198.229-59.435c47.744-29.525 89.131-66.859 123.477-104.448 27.477-30.080 50.133-59.947 67.627-85.376 13.995-20.352 24.405-37.376 31.317-49.408-6.955-11.989-17.365-29.056-31.317-49.408-17.493-25.429-40.107-55.296-67.627-85.376-34.347-37.589-75.733-74.923-123.477-104.448-57.557-35.584-123.733-59.435-198.229-59.435s-140.672 23.851-198.229 59.435c-47.744 29.525-89.131 66.859-123.477 104.448-27.477 30.080-50.133 59.947-67.627 85.376-13.995 20.352-24.405 37.419-31.36 49.408zM682.667 426.667c0 47.104-19.157 89.856-50.005 120.661s-73.557 50.005-120.661 50.005-89.856-19.157-120.661-50.005-50.005-73.557-50.005-120.661 19.157-89.856 50.005-120.661 73.557-50.005 120.661-50.005 89.856 19.157 120.661 50.005 50.005 73.557 50.005 120.661zM597.333 426.667c0-23.595-9.515-44.843-25.003-60.331s-36.736-25.003-60.331-25.003-44.843 9.515-60.331 25.003-25.003 36.736-25.003 60.331 9.515 44.843 25.003 60.331 36.736 25.003 60.331 25.003 44.843-9.515 60.331-25.003 25.003-36.736 25.003-60.331z" />
<glyph unicode="&#xe90c;" glyph-name="facebook" d="M725.333 810.667v-85.333h-85.333c-23.552 0-44.928-9.6-60.331-25.003s-25.003-36.779-25.003-60.331v-128c0-23.552 19.115-42.667 42.667-42.667h116.011l-21.333-85.333h-94.677c-23.552 0-42.667-19.115-42.667-42.667v-298.667h-85.333v298.667c0 23.552-19.115 42.667-42.667 42.667h-85.333v85.333h85.333c23.552 0 42.667 19.115 42.667 42.667v128c0 47.147 19.072 89.728 50.005 120.661s73.515 50.005 120.661 50.005zM768 896h-128c-70.699 0-134.741-28.715-181.035-74.965s-74.965-110.336-74.965-181.035v-85.333h-85.333c-23.552 0-42.667-19.115-42.667-42.667v-170.667c0-23.552 19.115-42.667 42.667-42.667h85.333v-298.667c0-23.552 19.115-42.667 42.667-42.667h170.667c23.552 0 42.667 19.115 42.667 42.667v298.667h85.333c19.883 0 36.608 13.611 41.387 32.299l42.667 170.667c5.717 22.869-8.192 46.037-31.061 51.755-3.541 0.896-7.125 1.323-10.325 1.28h-128v85.333h128c23.552 0 42.667 19.115 42.667 42.667v170.667c0 23.552-19.115 42.667-42.667 42.667z" />
<glyph unicode="&#xe90d;" glyph-name="file-text" d="M750.336 640h-110.336v110.336zM883.499 627.499l-256 256c-3.925 3.925-8.619 7.083-13.824 9.259s-10.795 3.243-16.341 3.243h-341.333c-35.328 0-67.413-14.379-90.496-37.504s-37.504-55.168-37.504-90.496v-682.667c0-35.328 14.379-67.413 37.504-90.496s55.168-37.504 90.496-37.504h512c35.328 0 67.413 14.379 90.496 37.504s37.504 55.168 37.504 90.496v512c0 11.776-4.779 22.443-12.501 30.165zM554.667 810.667v-213.333c0-23.552 19.115-42.667 42.667-42.667h213.333v-469.333c0-11.776-4.736-22.4-12.501-30.165s-18.389-12.501-30.165-12.501h-512c-11.776 0-22.4 4.736-30.165 12.501s-12.501 18.389-12.501 30.165v682.667c0 11.776 4.736 22.4 12.501 30.165s18.389 12.501 30.165 12.501zM682.667 426.667h-341.333c-23.552 0-42.667-19.115-42.667-42.667s19.115-42.667 42.667-42.667h341.333c23.552 0 42.667 19.115 42.667 42.667s-19.115 42.667-42.667 42.667zM682.667 256h-341.333c-23.552 0-42.667-19.115-42.667-42.667s19.115-42.667 42.667-42.667h341.333c23.552 0 42.667 19.115 42.667 42.667s-19.115 42.667-42.667 42.667zM426.667 597.334h-85.333c-23.552 0-42.667-19.115-42.667-42.667s19.115-42.667 42.667-42.667h85.333c23.552 0 42.667 19.115 42.667 42.667s-19.115 42.667-42.667 42.667z" />
<glyph unicode="&#xe90e;" glyph-name="github" d="M371.755 168.875c-54.101-16.213-87.893-14.293-110.208-7.253-9.856 3.115-18.389 7.509-26.197 12.885-17.536 12.117-31.019 28.8-47.744 50.005-15.189 19.243-36.267 47.232-66.176 62.976-7.893 4.181-16.469 7.552-25.771 9.899-22.869 5.717-46.037-8.192-51.755-31.061s8.192-46.037 31.061-51.755c3.157-0.981 6.613-2.56 6.613-2.56 10.752-5.675 20.779-17.237 38.997-40.363 15.616-19.797 36.523-46.848 66.261-67.371 14.165-9.771 30.336-18.176 49.024-24.064 43.307-13.696 95.403-12.629 160.427 6.912 22.571 6.784 35.371 30.549 28.587 53.12s-30.549 35.371-53.12 28.587zM725.333-0v161.792c2.219 29.184-2.389 57.301-12.459 82.859 33.152 7.296 66.688 18.219 98.005 35.115 88.875 47.957 149.163 138.325 149.163 295.381 0 64.128-22.016 123.179-58.837 169.856 15.147 57.387 9.643 116.309-12.501 167.808-5.205 12.075-15.317 20.565-27.051 24.064-15.232 4.523-73.899 13.184-186.581-58.112-96.981 23.083-194.432 21.717-283.563 0.085-112.597 71.211-171.221 62.549-186.453 58.027-12.629-3.755-22.229-12.8-27.093-24.107-23.637-55.125-26.624-114.005-12.459-167.765-39.68-50.261-59.179-110.976-58.837-171.392 0-154.539 59.264-244.181 146.816-292.651 32.085-17.749 66.56-29.227 100.565-36.992-7.893-19.968-12.203-41.003-12.971-62.123-0.213-6.016-0.128-12.075 0.213-18.091l0.043-163.755c0-23.552 19.115-42.667 42.667-42.667s42.667 19.115 42.667 42.667v165.12c0 0.896-0.043 1.92-0.085 2.944-0.256 3.584-0.299 7.168-0.171 10.752 0.853 24.235 10.283 48.043 28.373 66.731 6.187 6.357 10.496 14.805 11.691 24.405 2.901 23.381-13.696 44.715-37.077 47.616-14.507 1.792-28.885 4.011-42.923 6.784-33.707 6.656-64.768 16.427-91.605 31.275-55.68 30.848-102.016 88.363-102.827 215.125 0.555 52.949 17.877 98.944 52.224 135.040 10.965 11.648 14.933 28.629 9.045 44.373-11.947 31.915-14.549 67.413-5.973 102.059 20.949-4.565 57.771-17.749 112.939-54.699 10.027-6.699 22.741-9.131 35.2-5.675 85.205 23.765 180.992 25.685 276.053-0.085 11.563-3.115 24.277-1.408 34.901 5.76 55.168 36.949 91.989 50.133 112.939 54.699 8.064-32.683 6.699-68.053-6.016-102.059-5.504-15.019-2.475-32.213 9.088-44.373 32.341-33.92 52.224-79.872 52.224-130.56 0-131.2-47.531-189.653-104.32-220.288-26.581-14.336-57.301-23.68-90.581-29.867-13.739-2.56-27.776-4.523-41.941-6.101-8.96-0.981-17.835-4.864-24.917-11.733-16.939-16.384-17.408-43.392-1.024-60.331 2.859-2.987 5.547-6.101 8.021-9.387 14.507-19.157 22.229-43.307 20.224-68.992 0-1.024-0.043-2.176-0.128-3.328v-165.205c0-23.552 19.115-42.667 42.667-42.667s42.667 19.115 42.667 42.667z" />
<glyph unicode="&#xe90f;" glyph-name="gitlab" d="M991.488 290.176c11.136 7.253 21.035 19.029 27.093 32.597 7.339 16.427 9.131 35.456 3.2 55.68l-54.016 159.957-103.765 319.317c-2.901 9.771-8.32 18.901-16.939 27.179-11.349 10.325-25.728 15.659-40.149 15.872-14.976 0.213-30.165-5.077-41.643-15.573-7.040-6.272-12.629-14.251-16.128-23.339-0.256-0.64-0.512-1.408-0.768-2.219l-94.592-290.901h-283.605l-94.165 288.981c-2.901 9.771-8.32 18.901-16.939 27.179-11.307 10.325-25.685 15.659-40.107 15.872-14.976 0.256-30.165-5.035-41.643-15.573-7.083-6.229-12.629-14.251-16.171-23.296-0.256-0.683-0.512-1.451-0.768-2.219l-104.149-320.512-52.053-161.28c-4.523-14.037-4.992-28.843-1.621-42.837 4.181-17.365 14.336-33.408 29.952-44.885l454.4-330.24c14.763-10.581 34.901-11.093 50.176 0zM938.795 357.376l-426.795-310.187-425.941 309.547 51.413 156.245 80.469 247.68 80.683-247.808c5.845-17.92 22.4-29.312 40.576-29.44h345.6c18.859 0 34.859 12.245 40.576 29.483l80.469 247.637 80.725-248.491z" />
<glyph unicode="&#xe910;" glyph-name="instagram" d="M298.667 896c-70.699 0-134.741-28.715-181.035-74.965s-74.965-110.336-74.965-181.035v-426.667c0-70.699 28.715-134.741 74.965-181.035s110.336-74.965 181.035-74.965h426.667c70.699 0 134.741 28.715 181.035 74.965s74.965 110.336 74.965 181.035v426.667c0 70.699-28.715 134.741-74.965 181.035s-110.336 74.965-181.035 74.965zM298.667 810.667h426.667c47.147 0 89.728-19.072 120.661-50.005s50.005-73.515 50.005-120.661v-426.667c0-47.147-19.072-89.728-50.005-120.661s-73.515-50.005-120.661-50.005h-426.667c-47.147 0-89.728 19.072-120.661 50.005s-50.005 73.515-50.005 120.661v426.667c0 47.147 19.072 89.728 50.005 120.661s73.515 50.005 120.661 50.005zM724.864 459.819c-6.4 41.472-24.363 79.232-50.944 109.525-32.171 36.736-76.971 62.507-128.384 70.144-19.797 3.157-41.387 3.285-63.019 0.085-58.283-8.619-107.563-40.149-140.032-83.925s-48.341-100.139-39.68-158.379 40.149-107.563 83.925-140.032 100.139-48.341 158.379-39.68 107.563 40.149 140.032 83.925 48.341 100.139 39.68 158.379zM640.469 447.275c5.205-34.987-4.267-68.651-23.808-95.019s-49.067-45.184-84.011-50.347-68.651 4.267-95.019 23.808-45.184 49.067-50.347 84.011 4.267 68.651 23.808 95.019 49.067 45.184 84.011 50.347c13.355 1.963 26.24 1.792 37.12 0.085 31.573-4.693 58.283-20.053 77.568-42.069 16-18.261 26.88-41.088 30.72-65.835zM746.667 618.667c23.552 0 42.667 19.115 42.667 42.667s-19.115 42.667-42.667 42.667-42.667-19.115-42.667-42.667 19.115-42.667 42.667-42.667z" />
<glyph unicode="&#xe911;" glyph-name="layers" d="M512 805.632l331.264-165.632-331.264-165.632-331.264 165.632zM492.928 891.478l-426.667-213.333c-21.077-10.539-29.611-36.139-19.072-57.216 4.309-8.661 11.136-15.189 19.072-19.072l426.667-213.333c12.459-6.229 26.453-5.803 38.144 0l426.667 213.333c21.077 10.539 29.611 36.181 19.072 57.259-4.309 8.619-11.179 15.147-19.072 19.072l-426.667 213.333c-12.459 6.229-26.453 5.803-38.144 0zM66.261 175.19l426.667-213.333c12.459-6.229 26.453-5.803 38.144 0l426.667 213.333c21.077 10.539 29.611 36.181 19.072 57.259s-36.181 29.611-57.259 19.072l-407.552-203.819-407.595 203.776c-21.077 10.539-46.72 2.005-57.259-19.072s-2.005-46.72 19.072-57.259zM66.261 388.523l426.667-213.333c12.459-6.229 26.453-5.803 38.144 0l426.667 213.333c21.077 10.539 29.611 36.181 19.072 57.259s-36.181 29.611-57.259 19.072l-407.552-203.819-407.595 203.776c-21.077 10.539-46.72 2.005-57.259-19.072s-2.005-46.72 19.072-57.259z" />
<glyph unicode="&#xe912;" glyph-name="linkedin" d="M682.667 640c-82.475 0-157.184-33.493-211.2-87.467s-87.467-128.725-87.467-211.2v-298.667c0-23.552 19.115-42.667 42.667-42.667h170.667c23.552 0 42.667 19.115 42.667 42.667v298.667c0 11.776 4.736 22.4 12.501 30.165s18.389 12.501 30.165 12.501 22.4-4.736 30.165-12.501 12.501-18.389 12.501-30.165v-298.667c0-23.552 19.115-42.667 42.667-42.667h170.667c23.552 0 42.667 19.115 42.667 42.667v298.667c0 82.475-33.493 157.184-87.467 211.2s-128.725 87.467-211.2 87.467zM682.667 554.667c58.923 0 112.213-23.851 150.869-62.464s62.464-91.947 62.464-150.869v-256h-85.333v256c0 35.328-14.379 67.413-37.504 90.496s-55.168 37.504-90.496 37.504-67.413-14.379-90.496-37.504-37.504-55.168-37.504-90.496v-256h-85.333v256c0 58.923 23.851 112.213 62.464 150.869s91.947 62.464 150.869 62.464zM85.333 597.334c-23.552 0-42.667-19.115-42.667-42.667v-512c0-23.552 19.115-42.667 42.667-42.667h170.667c23.552 0 42.667 19.115 42.667 42.667v512c0 23.552-19.115 42.667-42.667 42.667zM128 512h85.333v-426.667h-85.333zM298.667 768c0 35.328-14.379 67.413-37.504 90.496s-55.168 37.504-90.496 37.504-67.413-14.379-90.496-37.504-37.504-55.168-37.504-90.496 14.379-67.413 37.504-90.496 55.168-37.504 90.496-37.504 67.413 14.379 90.496 37.504 37.504 55.168 37.504 90.496zM213.333 768c0-11.776-4.736-22.4-12.501-30.165s-18.389-12.501-30.165-12.501-22.4 4.736-30.165 12.501-12.501 18.389-12.501 30.165 4.736 22.4 12.501 30.165 18.389 12.501 30.165 12.501 22.4-4.736 30.165-12.501 12.501-18.389 12.501-30.165z" />
<glyph unicode="&#xe913;" glyph-name="menu" d="M128 384h768c23.552 0 42.667 19.115 42.667 42.667s-19.115 42.667-42.667 42.667h-768c-23.552 0-42.667-19.115-42.667-42.667s19.115-42.667 42.667-42.667zM128 640h768c23.552 0 42.667 19.115 42.667 42.667s-19.115 42.667-42.667 42.667h-768c-23.552 0-42.667-19.115-42.667-42.667s19.115-42.667 42.667-42.667zM128 128h768c23.552 0 42.667 19.115 42.667 42.667s-19.115 42.667-42.667 42.667h-768c-23.552 0-42.667-19.115-42.667-42.667s19.115-42.667 42.667-42.667z" />
<glyph unicode="&#xe914;" glyph-name="monitor" d="M512 256h-341.333c-11.776 0-22.4 4.736-30.165 12.501s-12.501 18.389-12.501 30.165v426.667c0 11.776 4.736 22.4 12.501 30.165s18.389 12.501 30.165 12.501h682.667c11.776 0 22.4-4.736 30.165-12.501s12.501-18.389 12.501-30.165v-426.667c0-11.776-4.736-22.4-12.501-30.165s-18.389-12.501-30.165-12.501zM469.333 170.667v-85.333h-128c-23.552 0-42.667-19.115-42.667-42.667s19.115-42.667 42.667-42.667h341.333c23.552 0 42.667 19.115 42.667 42.667s-19.115 42.667-42.667 42.667h-128v85.333h298.667c35.328 0 67.413 14.379 90.496 37.504s37.504 55.168 37.504 90.496v426.667c0 35.328-14.379 67.413-37.504 90.496s-55.168 37.504-90.496 37.504h-682.667c-35.328 0-67.413-14.379-90.496-37.504s-37.504-55.168-37.504-90.496v-426.667c0-35.328 14.379-67.413 37.504-90.496s55.168-37.504 90.496-37.504z" />
<glyph unicode="&#xe915;" glyph-name="moon" d="M938.496 389.035c0.939 9.941-1.621 20.309-8.021 29.056-13.867 19.029-40.576 23.211-59.605 9.344-40.533-29.568-87.893-46.336-136.021-49.579-58.368-3.925-117.973 12.075-168.533 49.408-56.875 42.027-91.264 103.040-100.992 167.893s5.291 133.291 47.317 190.123c6.059 8.149 9.216 18.56 8.149 29.483-2.261 23.467-23.125 40.619-46.592 38.315-96.341-9.387-184.064-50.347-251.52-113.109-74.069-68.907-123.819-164.139-133.845-272.469-10.837-117.291 26.923-227.968 96.683-311.936s171.605-141.355 288.939-152.192 227.968 26.923 311.936 96.683 141.355 171.605 152.192 288.939zM834.859 312.576c-20.907-58.155-56.96-108.501-103.083-146.816-67.243-55.851-155.648-86.016-249.515-77.355s-175.275 54.528-231.125 121.771-86.016 155.648-77.355 249.515c7.979 86.699 47.659 162.731 106.965 217.856 33.365 31.061 72.96 55.467 116.523 71.339-19.456-53.931-24.619-111.189-16.384-166.357 12.928-86.315 58.88-167.851 134.656-223.872 67.328-49.792 147.115-71.168 224.939-65.92 32.085 2.133 63.829 8.832 94.293 19.84z" />
<glyph unicode="&#xe916;" glyph-name="navigation" d="M109.739 507.904c-11.179-5.333-19.925-15.36-23.125-28.203-5.717-22.869 8.192-46.037 31.061-51.755l316.501-79.104 79.104-316.501c3.029-11.989 11.136-22.528 23.125-28.203 21.291-10.069 46.72-0.981 56.832 20.309l384 810.667c5.291 11.221 5.675 24.533 0 36.523-10.069 21.291-35.541 30.379-56.832 20.309zM253.995 481.792l594.987 281.856-281.856-594.987-56.405 225.707c-3.925 15.744-16.128 27.221-31.061 31.061z" />
<glyph unicode="&#xe917;" glyph-name="paperclip" d="M884.608 497.366l-392.107-392.107c-41.685-41.685-96.256-62.507-150.955-62.507s-109.269 20.821-150.955 62.507-62.507 96.256-62.507 150.955 20.821 109.269 62.507 150.955l392.107 392.107c25.003 25.003 57.728 37.504 90.581 37.504s65.536-12.501 90.581-37.504 37.504-57.728 37.504-90.581-12.501-65.536-37.504-90.581l-392.533-392.107c-8.363-8.363-19.243-12.544-30.208-12.544s-21.845 4.181-30.208 12.501-12.501 19.2-12.501 30.208 4.181 21.845 12.501 30.208l362.24 361.813c16.683 16.64 16.683 43.648 0.043 60.331s-43.648 16.683-60.331 0.043l-362.24-361.813c-25.003-25.003-37.504-57.856-37.504-90.539s12.501-65.536 37.504-90.539 57.856-37.504 90.539-37.504 65.536 12.501 90.539 37.504l392.533 392.107c41.685 41.685 62.507 96.341 62.507 150.912s-20.864 109.269-62.507 150.912-96.341 62.507-150.912 62.507-109.269-20.864-150.912-62.507l-392.107-392.107c-58.325-58.325-87.509-134.869-87.509-211.285s29.184-152.96 87.509-211.285 134.869-87.509 211.285-87.509 152.96 29.184 211.285 87.509l392.107 392.107c16.683 16.683 16.683 43.691 0 60.331s-43.691 16.683-60.331 0z" />
<glyph unicode="&#xe918;" glyph-name="pen-tool" d="M798.165 353.835l12.501 12.501 67.669-67.669-238.336-238.336-67.669 67.669 12.501 12.501zM96.085 894.635c-1.493 0.384-2.987 0.683-4.523 0.896-6.101 0.939-12.117 0.469-17.792-1.109-5.632-1.579-11.051-4.352-15.787-8.32-3.925-3.285-7.296-7.296-9.856-11.904-2.56-4.523-4.224-9.387-4.949-14.379-0.853-5.461-0.64-10.88 0.512-15.829 0.043-0.213 0.128-0.469 0.171-0.683l0.171-0.725 149.163-617.941c4.011-16.555 17.195-28.544 33.109-31.829l245.973-49.195c-6.016-15.317-2.859-33.408 9.557-45.781l128-128c16.683-16.683 43.691-16.683 60.331 0l298.667 298.667c16.683 16.683 16.683 43.691 0 60.331l-128 128c-12.373 12.373-30.464 15.573-45.781 9.557l-49.195 245.973c-3.328 16.725-16.043 29.184-31.829 33.109zM597.333 469.334c0 35.328-14.379 67.413-37.504 90.496s-55.168 37.504-90.496 37.504c-19.755 0-38.485-4.48-55.168-12.501l-191.445 191.445 444.8-107.349 54.187-270.891-181.035-181.035-270.891 54.187-107.392 444.757 191.445-191.445c-8.021-16.683-12.501-35.413-12.501-55.168 0-35.328 14.379-67.413 37.504-90.496s55.168-37.504 90.496-37.504 67.413 14.379 90.496 37.504 37.504 55.168 37.504 90.496zM512 469.334c0-11.776-4.736-22.4-12.501-30.165s-18.389-12.501-30.165-12.501-22.4 4.736-30.165 12.501-12.501 18.389-12.501 30.165c0 11.52 4.523 21.931 11.989 29.653 0.171 0.171 0.341 0.341 0.555 0.512s0.341 0.341 0.512 0.555c7.68 7.424 18.091 11.947 29.611 11.947 11.776 0 22.4-4.736 30.165-12.501s12.501-18.389 12.501-30.165z" />
<glyph unicode="&#xe919;" glyph-name="phone" d="M981.333 216.747c0.683 30.464-10.069 59.904-28.715 82.901-19.627 24.149-48.171 41.259-82.133 46.080-34.133 4.181-72.32 13.397-110.336 27.563-18.475 6.784-38.101 9.301-57.344 7.424-28.288-2.731-55.765-14.891-77.611-36.48l-30.72-30.72c-75.52 47.659-143.36 113.792-195.541 195.797l30.976 30.976c13.739 14.080 24.021 30.976 30.165 49.323 9.045 26.965 9.131 57.003-1.664 85.803-12.331 32.128-22.101 70.144-27.477 110.72-4.437 30.464-19.456 57.387-41.088 76.971-22.997 20.736-53.589 33.237-86.485 32.896h-127.829c-3.755 0-7.765-0.171-11.648-0.512-35.157-3.2-65.792-20.395-86.741-45.483s-32.341-58.325-29.141-93.824c12.8-131.243 58.24-266.368 137.216-388.352 64.085-102.955 155.648-197.248 268.715-269.056 109.568-72.405 242.517-122.112 387.669-137.856 3.925-0.384 8.149-0.555 12.288-0.555 35.328 0.128 67.328 14.635 90.368 37.845s37.248 55.339 37.12 90.496zM896 216.747v-128c0.043-11.947-4.651-22.613-12.373-30.379s-18.304-12.587-30.123-12.629c-134.357 14.336-254.336 59.349-352.555 124.245-103.595 65.835-185.984 150.912-243.285 242.944-72.405 111.787-113.28 233.856-124.757 351.488-1.024 11.435 2.731 22.443 9.771 30.891s17.195 14.080 28.928 15.147l131.755 0.213c11.563 0.128 21.632-4.011 29.312-10.923 7.253-6.571 12.288-15.616 13.781-25.941 6.059-45.739 17.408-90.325 32.299-129.067 3.456-9.216 3.413-19.072 0.427-28.075-2.091-6.187-5.589-11.989-10.325-16.853l-53.845-53.803c-13.824-13.824-16.171-34.731-6.912-51.243 67.584-118.827 163.797-211.499 272.256-272.128 16.939-9.472 37.632-6.144 50.987 7.083l54.187 54.187c7.083 6.997 16.085 10.965 25.515 11.904 6.485 0.64 13.227-0.213 19.584-2.56 43.605-16.256 88.32-27.136 129.451-32.171 10.283-1.451 19.712-7.083 26.24-15.147 6.272-7.723 9.856-17.579 9.643-29.099z" />
<glyph unicode="&#xe91a;" glyph-name="save" d="M810.667-0c35.328 0 67.413 14.379 90.496 37.504s37.504 55.168 37.504 90.496v469.333c0 10.923-4.181 21.845-12.501 30.165l-213.333 213.333c-7.723 7.723-18.389 12.501-30.165 12.501h-469.333c-35.328 0-67.413-14.379-90.496-37.504s-37.504-55.168-37.504-90.496v-597.333c0-35.328 14.379-67.413 37.504-90.496s55.168-37.504 90.496-37.504zM341.333 85.334v256h341.333v-256zM256 768v-170.667c0-23.552 19.115-42.667 42.667-42.667h341.333c23.552 0 42.667 19.115 42.667 42.667s-19.115 42.667-42.667 42.667h-298.667v128h323.669l188.331-188.331v-451.669c0-11.776-4.736-22.4-12.501-30.165s-18.389-12.501-30.165-12.501h-42.667v298.667c0 23.552-19.115 42.667-42.667 42.667h-426.667c-23.552 0-42.667-19.115-42.667-42.667v-298.667h-42.667c-11.776 0-22.4 4.736-30.165 12.501s-12.501 18.389-12.501 30.165v597.333c0 11.776 4.736 22.4 12.501 30.165s18.389 12.501 30.165 12.501z" />
<glyph unicode="&#xe91b;" glyph-name="sun" d="M768 426.667c0 70.699-28.715 134.741-74.965 181.035s-110.336 74.965-181.035 74.965-134.741-28.715-181.035-74.965-74.965-110.336-74.965-181.035 28.715-134.741 74.965-181.035 110.336-74.965 181.035-74.965 134.741 28.715 181.035 74.965 74.965 110.336 74.965 181.035zM682.667 426.667c0-47.147-19.072-89.728-50.005-120.661s-73.515-50.005-120.661-50.005-89.728 19.072-120.661 50.005-50.005 73.515-50.005 120.661 19.072 89.728 50.005 120.661 73.515 50.005 120.661 50.005 89.728-19.072 120.661-50.005 50.005-73.515 50.005-120.661zM469.333 896v-85.333c0-23.552 19.115-42.667 42.667-42.667s42.667 19.115 42.667 42.667v85.333c0 23.552-19.115 42.667-42.667 42.667s-42.667-19.115-42.667-42.667zM469.333 42.667v-85.333c0-23.552 19.115-42.667 42.667-42.667s42.667 19.115 42.667 42.667v85.333c0 23.552-19.115 42.667-42.667 42.667s-42.667-19.115-42.667-42.667zM149.888 728.448l60.587-60.587c16.683-16.683 43.691-16.683 60.331 0s16.683 43.691 0 60.331l-60.587 60.587c-16.683 16.683-43.691 16.683-60.331 0s-16.683-43.691 0-60.331zM753.195 125.142l60.587-60.587c16.683-16.683 43.691-16.683 60.331 0s16.683 43.691 0 60.331l-60.587 60.587c-16.683 16.683-43.691 16.683-60.331 0s-16.683-43.691 0-60.331zM42.667 384h85.333c23.552 0 42.667 19.115 42.667 42.667s-19.115 42.667-42.667 42.667h-85.333c-23.552 0-42.667-19.115-42.667-42.667s19.115-42.667 42.667-42.667zM896 384h85.333c23.552 0 42.667 19.115 42.667 42.667s-19.115 42.667-42.667 42.667h-85.333c-23.552 0-42.667-19.115-42.667-42.667s19.115-42.667 42.667-42.667zM210.219 64.555l60.587 60.587c16.683 16.683 16.683 43.691 0 60.331s-43.691 16.683-60.331 0l-60.587-60.587c-16.683-16.683-16.683-43.691 0-60.331s43.691-16.683 60.331 0zM813.525 667.862l60.587 60.587c16.683 16.683 16.683 43.691 0 60.331s-43.691 16.683-60.331 0l-60.587-60.587c-16.683-16.683-16.683-43.691 0-60.331s43.691-16.683 60.331 0z" />
<glyph unicode="&#xe91c;" glyph-name="terminal" d="M200.832 183.168l256 256c16.683 16.683 16.683 43.691 0 60.331l-256 256c-16.683 16.683-43.691 16.683-60.331 0s-16.683-43.691 0-60.331l225.835-225.835-225.835-225.835c-16.683-16.683-16.683-43.691 0-60.331s43.691-16.683 60.331 0zM512 85.334h341.333c23.552 0 42.667 19.115 42.667 42.667s-19.115 42.667-42.667 42.667h-341.333c-23.552 0-42.667-19.115-42.667-42.667s19.115-42.667 42.667-42.667z" />
<glyph unicode="&#xe91d;" glyph-name="x" d="M225.835 652.502l225.835-225.835-225.835-225.835c-16.683-16.683-16.683-43.691 0-60.331s43.691-16.683 60.331 0l225.835 225.835 225.835-225.835c16.683-16.683 43.691-16.683 60.331 0s16.683 43.691 0 60.331l-225.835 225.835 225.835 225.835c16.683 16.683 16.683 43.691 0 60.331s-43.691 16.683-60.331 0l-225.835-225.835-225.835 225.835c-16.683 16.683-43.691 16.683-60.331 0s-16.683-43.691 0-60.331z" />
<glyph unicode="&#xe91e;" glyph-name="youtube" d="M920.021 655.488c12.245-65.237 19.115-140.587 18.645-218.667 0.811-65.195-5.248-139.392-18.645-214.229-2.432-8.875-6.4-17.195-11.605-24.533-9.685-13.696-23.808-24.107-40.491-28.8-25.771-6.869-91.989-11.733-165.419-14.549-95.147-3.669-190.507-3.669-190.507-3.669s-95.36 0-190.507 3.627c-73.429 2.816-139.648 7.637-164.949 14.421-8.747 2.432-16.896 6.357-24.149 11.435-13.269 9.387-23.467 22.869-28.587 39.381-12.16 65.109-18.944 140.203-18.475 218.027-0.896 65.707 5.163 140.459 18.645 215.893 2.432 8.875 6.4 17.195 11.605 24.533 9.685 13.696 23.808 24.107 40.491 28.8 25.771 6.869 91.989 11.733 165.419 14.549 95.147 3.627 190.507 3.627 190.507 3.627s95.36 0 190.549-3.328c73.344-2.56 140.032-6.955 164.523-12.928 9.344-2.688 17.963-7.040 25.515-12.757 13.099-9.899 22.955-23.936 27.435-40.875zM1003.093 675.115c-9.259 36.949-30.635 67.84-59.008 89.301-15.915 12.032-33.963 21.077-53.291 26.667-38.315 9.387-115.029 13.781-185.259 16.213-96.725 3.371-193.536 3.371-193.536 3.371s-96.939 0-193.749-3.712c-70.059-2.688-147.2-7.467-184.192-17.365-37.291-10.539-67.456-32.853-88.064-61.867-11.52-16.256-20.011-34.603-25.045-54.101-0.256-1.024-0.469-2.091-0.64-3.029-14.635-80.981-21.291-161.835-20.309-233.856-0.512-82.091 6.869-163.456 20.352-234.752 0.256-1.323 0.555-2.645 0.896-3.755 10.453-36.693 32.853-66.859 61.909-87.381 15.232-10.752 32.299-18.901 50.432-23.936 37.504-10.027 114.603-14.805 184.661-17.493 96.811-3.712 193.749-3.712 193.749-3.712s96.939 0 193.749 3.712c70.059 2.688 147.157 7.467 184.192 17.365 37.248 10.539 67.456 32.853 88.021 61.867 11.52 16.256 20.053 34.603 25.045 54.059 0.256 1.067 0.512 2.133 0.64 3.029 14.507 80.384 21.163 160.64 20.309 232.107 0.512 82.133-6.869 163.541-20.352 234.837-0.171 0.853-0.341 1.707-0.512 2.432zM458.667 371.158v132.352l116.352-66.176zM437.077 260.736l245.333 139.52c20.48 11.648 27.648 37.717 16 58.197-3.968 6.997-9.643 12.459-16 16l-245.333 139.52c-20.48 11.648-46.549 4.48-58.197-16-3.84-6.741-5.632-14.080-5.589-21.077v-279.040c0-23.552 19.115-42.667 42.667-42.667 7.765 0 15.019 2.091 21.077 5.589z" />
</font></defs></svg>